<?xml version="1.0" encoding="utf-8"?>
<!-- Generator: Adobe Illustrator 17.0.0, SVG Export Plug-In . SVG Version: 6.00 Build 0)  -->
<!DOCTYPE svg PUBLIC "-//W3C//DTD SVG 1.0//EN" "http://www.w3.org/TR/2001/REC-SVG-20010904/DTD/svg10.dtd">
<svg version="1.0" id="Layer_1" xmlns="http://www.w3.org/2000/svg" xmlns:xlink="http://www.w3.org/1999/xlink" x="0px" y="0px"
	 width="310.25px" height="413px" viewBox="0 0 310.25 413" enable-background="new 0 0 310.25 413" xml:space="preserve">
<g>
	<rect x="-0.953" y="4.013" fill="#E2E2E2" width="1.906" height="382.537"/>
	<rect x="-4.938" y="3.225" fill="#39B54A" width="9.938" height="1.576"/>
</g>
<g>
	<rect x="309.485" y="4.013" fill="#E2E2E2" width="1.906" height="382.537"/>
	<rect x="305.5" y="3.225" fill="#39B54A" width="9.938" height="1.576"/>
</g>
</svg>
