<?xml version="1.0" encoding="utf-8"?>
<!-- Generator: Adobe Illustrator 17.0.0, SVG Export Plug-In . SVG Version: 6.00 Build 0)  -->
<!DOCTYPE svg PUBLIC "-//W3C//DTD SVG 1.0//EN" "http://www.w3.org/TR/2001/REC-SVG-20010904/DTD/svg10.dtd">
<svg version="1.0" id="Layer_1" xmlns="http://www.w3.org/2000/svg" xmlns:xlink="http://www.w3.org/1999/xlink" x="0px" y="0px"
	 width="100px" height="100px" viewBox="0 0 100 100" enable-background="new 0 0 100 100" xml:space="preserve">
<g>
	<g>
		<path id="XMLID_283_" fill="#76E140" d="M48.005,43.581c0,0-11.802-2.929-18.941-9.153S17.532,19.784,17.166,8.801
			C16.8-2.182,30.512,3.31,30.512,3.31S48.65,8.161,54.325,22.759S48.005,43.581,48.005,43.581z"/>
		<path id="XMLID_2_" d="M23.702,4.59c2.807,0,5.799,1.173,5.824,1.183l0.148,0.059l0.15,0.041
			c0.169,0.046,16.922,4.711,22.028,17.848c1.987,5.113,1.771,9.577-0.643,13.267c-1.214,1.856-2.719,3.089-3.624,3.726
			c-2.955-0.859-11.41-3.605-16.777-8.284c-6.97-6.077-10.668-14.056-10.99-23.715c-0.051-1.521,0.224-2.603,0.817-3.216
			C21.36,4.748,22.703,4.59,23.702,4.59 M23.702,1.937c-3.382,0-6.719,1.373-6.536,6.864c0.366,10.983,4.759,19.403,11.898,25.627
			s18.941,9.153,18.941,9.153S60,37.357,54.325,22.759S30.512,3.31,30.512,3.31S27.084,1.937,23.702,1.937L23.702,1.937z"/>
		<path d="M51.762,37.036c-0.329,0-0.659-0.122-0.916-0.367L22.839,9.944c-0.53-0.506-0.55-1.346-0.044-1.876
			s1.345-0.55,1.876-0.044L52.678,34.75c0.53,0.506,0.55,1.346,0.044,1.876C52.462,36.899,52.112,37.036,51.762,37.036z"/>
		<path d="M39.739,24.136l-14.454-0.463c-0.732-0.023-1.307-0.636-1.284-1.369c0.023-0.733,0.64-1.313,1.369-1.284l11.272,0.361
			l-1.45-9.637c-0.109-0.725,0.39-1.4,1.115-1.509c0.726-0.111,1.4,0.39,1.509,1.115L39.739,24.136z"/>
		<path d="M47.991,31.959l-15.563-1.334c-0.73-0.062-1.271-0.705-1.209-1.435c0.062-0.731,0.705-1.272,1.435-1.209l11.918,1.021
			l-2.706-11.547c-0.167-0.713,0.276-1.427,0.989-1.594c0.714-0.167,1.427,0.276,1.594,0.989L47.991,31.959z"/>
	</g>
	<path id="XMLID_44_" fill="#D67000" d="M85.817,77.08c-1.108,0-2.164,0.218-3.136,0.602c-2.338-4.295-6.891-7.21-12.125-7.21
		c-0.526,0-1.044,0.032-1.554,0.089c-2.982-7.013-9.934-11.932-18.036-11.932c-7.462,0-13.948,4.173-17.256,10.311
		c-0.758-0.124-1.534-0.191-2.327-0.191c-6.203,0-11.486,3.937-13.488,9.448c-1.16-0.606-2.476-0.953-3.876-0.953
		c-4.633,0-8.389,3.756-8.389,8.389s3.756,8.389,8.389,8.389c2.273,0,4.332-0.908,5.842-2.376c2.615,3.518,6.802,5.798,11.522,5.798
		c3.27,0,6.283-1.096,8.696-2.938c3.114,2.085,6.857,3.303,10.886,3.303c3.897,0,7.524-1.142,10.575-3.104
		c2.418,2.09,5.567,3.358,9.015,3.358c4.353,0,8.232-2.018,10.76-5.166c1.309,0.813,2.847,1.29,4.501,1.29
		c4.724,0,8.553-3.829,8.553-8.553S90.541,77.08,85.817,77.08z"/>
	<path id="XMLID_8_" d="M50.966,61.283c6.808,0,12.929,4.049,15.594,10.317l0.773,1.819l1.964-0.22
		c0.431-0.048,0.854-0.073,1.258-0.073c4.086,0,7.838,2.232,9.794,5.825l1.122,2.061l2.183-0.862
		c0.699-0.276,1.427-0.416,2.162-0.416c3.253,0,5.9,2.647,5.9,5.9s-2.647,5.9-5.9,5.9c-1.09,0-2.163-0.308-3.101-0.89l-1.997-1.24
		l-1.472,1.833c-2.13,2.653-5.298,4.174-8.691,4.174c-2.671,0-5.256-0.963-7.279-2.712l-1.501-1.298l-1.669,1.073
		c-2.73,1.755-5.89,2.682-9.141,2.682c-3.368,0-6.622-0.987-9.41-2.854l-1.578-1.057l-1.509,1.152
		c-2.051,1.566-4.502,2.394-7.086,2.394c-3.736,0-7.159-1.723-9.392-4.727l-1.807-2.431l-2.172,2.111
		c-1.079,1.048-2.497,1.625-3.993,1.625c-3.163,0-5.736-2.573-5.736-5.736s2.573-5.736,5.736-5.736c0.929,0,1.819,0.219,2.647,0.652
		l2.687,1.404l1.035-2.849c1.674-4.606,6.092-7.7,10.994-7.7c0.626,0,1.265,0.053,1.9,0.156l1.866,0.304l0.897-1.665
		C39.01,64.699,44.727,61.283,50.966,61.283 M50.966,58.629c-7.462,0-13.948,4.173-17.256,10.311
		c-0.758-0.124-1.534-0.191-2.327-0.191c-6.203,0-11.486,3.937-13.488,9.448c-1.16-0.606-2.476-0.953-3.876-0.953
		c-4.633,0-8.389,3.756-8.389,8.389s3.756,8.389,8.389,8.389c2.273,0,4.332-0.908,5.842-2.376c2.615,3.518,6.802,5.798,11.522,5.798
		c3.27,0,6.283-1.096,8.696-2.938c3.114,2.085,6.857,3.303,10.886,3.303c3.897,0,7.524-1.142,10.575-3.104
		c2.418,2.09,5.567,3.358,9.015,3.358c4.353,0,8.232-2.018,10.76-5.166c1.309,0.813,2.847,1.29,4.501,1.29
		c4.724,0,8.553-3.829,8.553-8.553s-3.829-8.553-8.553-8.553c-1.108,0-2.164,0.218-3.136,0.602c-2.338-4.295-6.891-7.21-12.125-7.21
		c-0.526,0-1.044,0.032-1.554,0.089C66.02,63.548,59.067,58.629,50.966,58.629L50.966,58.629z"/>
	<path id="XMLID_7_" d="M73.607,59.445c1.089,0,1.976,0.886,1.976,1.976c0,1.089-0.886,1.976-1.976,1.976
		c-1.089,0-1.976-0.886-1.976-1.976C71.631,60.331,72.517,59.445,73.607,59.445 M73.607,56.791c-2.557,0-4.629,2.073-4.629,4.629
		c0,2.557,2.073,4.629,4.629,4.629c2.557,0,4.629-2.073,4.629-4.629S76.163,56.791,73.607,56.791L73.607,56.791z"/>
	<path id="XMLID_6_" d="M56.913,78.246c1.089,0,1.976,0.886,1.976,1.976c0,1.089-0.886,1.976-1.976,1.976
		c-1.089,0-1.976-0.886-1.976-1.976C54.937,79.132,55.823,78.246,56.913,78.246 M56.913,75.592c-2.557,0-4.629,2.073-4.629,4.629
		c0,2.557,2.073,4.629,4.629,4.629c2.557,0,4.629-2.073,4.629-4.629S59.469,75.592,56.913,75.592L56.913,75.592z"/>
	<path id="XMLID_5_" d="M70.948,86.088c1.089,0,1.976,0.886,1.976,1.976s-0.886,1.976-1.976,1.976c-1.089,0-1.976-0.886-1.976-1.976
		S69.858,86.088,70.948,86.088 M70.948,83.434c-2.557,0-4.629,2.073-4.629,4.629s2.073,4.629,4.629,4.629
		c2.557,0,4.629-2.073,4.629-4.629S73.504,83.434,70.948,83.434L70.948,83.434z"/>
	<path id="XMLID_4_" d="M23.328,57.449c1.396,0,2.531,1.136,2.531,2.531c0,1.396-1.135,2.531-2.531,2.531s-2.531-1.136-2.531-2.531
		C20.796,58.584,21.932,57.449,23.328,57.449 M23.328,54.795c-2.863,0-5.185,2.321-5.185,5.185c0,2.863,2.321,5.185,5.185,5.185
		s5.185-2.321,5.185-5.185C28.512,57.117,26.191,54.795,23.328,54.795L23.328,54.795z"/>
	<circle id="XMLID_277_" fill="#D67000" cx="80.285" cy="62.468" r="1.178"/>
	<circle id="XMLID_278_" fill="#D67000" cx="80.285" cy="68.884" r="1.178"/>
	<circle id="XMLID_280_" fill="#D67000" cx="18.143" cy="67.292" r="1.178"/>
	<path id="XMLID_45_" fill="#76E140" d="M46.284,58.957c0,0-1.281-8.054,1.647-21.051s9.519-21.417,9.519-21.417
		S63.115,9.35,68.977,6.97C74.84,4.59,79.05,2.577,86.189,2.028s5.125,8.237,5.125,8.237s-2.746,15.193-11.532,23.43
		s-19.769,10.8-21.051,10.434s-2.929,0.732-2.929,0.732l-0.915,14.095h-8.603V58.957z"/>
	<path id="XMLID_3_" d="M86.813,4.657c1.106,0,1.407,0.375,1.52,0.516c0.743,0.926,0.674,3.238,0.395,4.499l-0.014,0.06
		l-0.011,0.059c-0.026,0.144-2.711,14.445-10.736,21.969c-7.539,7.068-16.809,9.652-18.791,9.747
		c-0.325-0.07-0.664-0.106-1.01-0.106c-1.862,0-3.521,1.043-3.835,1.253l-1.091,0.727l-0.085,1.309l-0.754,11.613h-3.689
		c-0.156-3.119-0.097-9.356,1.809-17.814c2.75-12.204,8.96-20.288,9.009-20.351c1.455-1.834,6.168-6.972,10.446-8.709
		c0.621-0.252,1.223-0.5,1.813-0.743c4.824-1.985,8.635-3.554,14.604-4.013C86.539,4.663,86.68,4.657,86.813,4.657 M86.813,2.004
		c-0.2,0-0.408,0.008-0.624,0.025C79.05,2.578,74.84,4.591,68.978,6.971c-5.863,2.38-11.527,9.519-11.527,9.519
		s-6.59,8.42-9.519,21.417s-1.647,21.051-1.647,21.051h8.603l0.915-14.095c0,0,1.21-0.807,2.363-0.807
		c0.192,0,0.383,0.022,0.566,0.075c0.078,0.022,0.191,0.034,0.338,0.034c2.27,0,12.46-2.731,20.712-10.468
		c8.786-8.237,11.532-23.43,11.532-23.43S93.209,2.004,86.813,2.004L86.813,2.004z"/>
	<path d="M53.849,39.233c-0.347,0-0.694-0.136-0.955-0.405c-0.509-0.527-0.494-1.367,0.033-1.876L82.888,8.03
		c0.528-0.508,1.367-0.494,1.876,0.033s0.494,1.367-0.033,1.876l-29.96,28.922C54.513,39.109,54.181,39.233,53.849,39.233z"/>
	<path d="M81.613,24.086H67.9l2.897-13.549c0.153-0.717,0.862-1.172,1.575-1.02c0.717,0.153,1.173,0.858,1.02,1.575l-2.211,10.34
		h10.432c0.733,0,1.327,0.594,1.327,1.327S82.346,24.086,81.613,24.086z"/>
	<path d="M73.607,31.807H59.9l2.843-13.217c0.154-0.717,0.864-1.172,1.576-1.018c0.717,0.154,1.172,0.86,1.018,1.576l-2.153,10.006
		h10.423c0.733,0,1.327,0.594,1.327,1.327S74.34,31.807,73.607,31.807z"/>
</g>
</svg>
