<?xml version="1.0" encoding="utf-8"?>
<!-- Generator: Adobe Illustrator 19.2.1, SVG Export Plug-In . SVG Version: 6.00 Build 0)  -->
<svg version="1.1" id="Layer_1" xmlns="http://www.w3.org/2000/svg" xmlns:xlink="http://www.w3.org/1999/xlink" x="0px" y="0px"
	 viewBox="0 0 87.5 94.8" style="enable-background:new 0 0 87.5 94.8;" xml:space="preserve">
<style type="text/css">
	.st0{fill:#8DC63F;}
</style>
<path class="st0" d="M54.4,28.5L54.4,28.5c1-2.3,1.4-4.9,1.4-7.4C55.4,12.6,49,5.6,41,5.3c-8.9-0.4-16.1,7.1-16.1,16.5
	c0,1.8,0.3,3.6,0.9,5.4c0.4,1.2,1,2.4,1.6,3.5c1.4,3,3.4,7.4,4.8,10.6c2.4,5.4,1.1,12.8,7.8,12.9c6.7,0,6.6-8.8,8.8-13.5
	c1.7-3.6,4.1-8.9,5.1-11.1c0.2-0.3,0.3-0.6,0.4-1L54.4,28.5z"/>
<path d="M38.2,55.6L38.2,55.6c-6,0-7-4.6-7.9-8.6c-0.3-1.7-0.8-3.4-1.5-4.9c-1.5-3.1-3.5-7.5-5.1-10.6c-0.7-1.2-1.3-2.4-1.8-3.7
	C21.4,25.9,21,24,21,22c0-9.7,7.9-17.6,17.6-17.6c0.2,0,0.5,0,0.7,0c9.2,0.4,16.5,7.8,16.9,16.9c0.1,2.2-0.2,4.3-1,6.4h0.1l-0.8,1.6
	c-0.2,0.4-0.3,0.7-0.5,1c-1.1,2.2-3.7,7.4-5.5,11c-0.6,1.4-1.1,2.8-1.5,4.3C45.9,50.1,44.3,55.6,38.2,55.6z M38.6,6.7
	c-8.5,0-15.3,6.9-15.3,15.3l0,0c0.1,1.7,0.4,3.4,0.9,5c0.4,1.2,1,2.3,1.6,3.3l0.1,0.1c1.5,3.1,3.6,7.5,5.1,10.6
	c0.7,1.7,1.3,3.5,1.6,5.4c1,4.3,1.8,6.8,5.7,6.8h0c4,0,5.3-3.3,6.7-8.2c0.4-1.6,0.9-3.2,1.6-4.7c1.8-3.6,4.4-8.9,5.5-11.1l0,0
	c0.1-0.2,0.3-0.5,0.4-0.9l0.1-0.1c1-2.2,1.4-4.5,1.3-6.9c-0.3-8-6.7-14.4-14.6-14.8L38.6,6.7z"/>
<rect x="31.8" y="47.3" width="13.3" height="2.2"/>
<rect x="31.5" y="43.8" width="14.4" height="2.2"/>
<rect x="29.2" y="38.5" width="19.3" height="2.2"/>
<path d="M30,24L30,24c-0.6,0-1.1-0.5-1.1-1.2c0,0,0,0,0,0c0.3-8,6.9-10,10.4-9.9c0.6,0,1.1,0.5,1.1,1.1c0,0.6-0.5,1.1-1.1,1.1l0,0
	c-0.3,0-7.8,0-8.1,7.8C31.2,23.5,30.7,24,30,24C30,24,30,24,30,24z"/>
<circle cx="30" cy="25.4" r="0.9"/>
<rect x="37.9" y="66.8" transform="matrix(0.6756 -0.7373 0.7373 0.6756 -32.4511 62.1092)" width="33" height="2.2"/>
<rect x="41.9" y="70" transform="matrix(0.5408 -0.8412 0.8412 0.5408 -33.6152 80.6699)" width="30.4" height="2.2"/>
<polygon class="st0" points="64.3,56.7 35.9,77.1 43.5,79.8 "/>
<path class="st0" d="M65.2,56.7L44,81.2c0,0,3.1,5.4,3,5.4c-0.1,0,18.2-28.5,18.2-28.5V56.7z"/>
<polygon class="st0" points="64.7,59.9 51.7,83.2 61.2,86.6 "/>
<path d="M46.8,90.3L42.4,81l-11.2-4l36.7-24.8l-5.5,36.4l-11.9-3.9L46.8,90.3z M36.1,76.3l7.9,2.8l3.1,6.5l2.5-3.9l11,3.7L65,56.9
	L36.1,76.3z"/>
</svg>
